2
12 14
2 2
**************
*           **
*   $       **
**        ** *
*   **       *
*     $      *
*            *
*  $         *
*           $*
****   $  $  *
*    $*      *
**************
14 14
6 12
**************
*      $     *
*$   $    ** *
*   $        *
*   * $      *
*   *$   $ $ *
*   **       *
*   $*      $*
*     **     *
**  ***  $   *
*    $       *
*    $       *
*    $       *
**************
1 3 8
2
1 0
8 9
1 9
0 3549
7 8
-1 -1
